[
  {
    "shopId": "leedesert",
    "name": "李記甜品",
    "type": "dessert",
    "location": "台北市內湖區江南街123號",
    "items": [
      {
        "itemId": "lee0",
        "name": "豆花選項: 非基改豆漿 無糖",
        "price": 10
      },
      {
        "itemId": "lee01",
        "name": "豆花選項: 非基改豆漿 微糖",
        "price": 10
      },
      {
        "itemId": "lee02",
        "name": "豆花選項: 薑汁",
        "price": 40
      },
      {
        "itemId": "lee1",
        "name": "花生豆花",
        "price": 40
      },
      {
        "itemId": "lee2",
        "name": "紅豆豆花",
        "price": 40
      },
      {
        "itemId": "lee3",
        "name": "薏仁豆花",
        "price": 40
      },
      {
        "itemId": "lee4",
        "name": "珍珠豆花",
        "price": 40
      },
      {
        "itemId": "lee5",
        "name": "枸杞銀耳豆花",
        "price": 40 
      },
      {
        "itemId": "lee6",
        "name": "黃金地瓜豆花",
        "price": 40 
      },
      {
        "itemId": "lee7",
        "name": "純米湯圓豆花",
        "price": 40 
      },
      {
        "itemId": "lee8",
        "name": "黑糖粉粿豆花",
        "price": 40 
      },
      {
        "itemId": "lee03",
        "name": "紅豆湯花生湯選項: 甜酒釀",
        "price": 10
      },
      {
        "itemId": "lee9",
        "name": "紅豆湯",
        "price": 50
      },
      {
        "itemId": "lee10",
        "name": "枸杞銀耳紅豆湯",
        "price": 60
      },
      {
        "itemId": "lee11",
        "name": "黃金地瓜紅豆湯",
        "price": 60
      },
      {
        "itemId": "lee12",
        "name": "純米湯圓紅豆湯",
        "price": 60
      },
      {
        "itemId": "lee13",
        "name": "黑糖粉粿紅豆湯",
        "price": 60
      },
      {
        "itemId": "lee14",
        "name": "老薑黑糖紅豆湯",
        "price": 60
      },
      {
        "itemId": "lee15",
        "name": "花生湯",
        "price": 50
      },
      {
        "itemId": "lee16",
        "name": "黃金地瓜花生湯",
        "price": 60
      },
      {
        "itemId": "lee17",
        "name": "純米湯圓花生湯",
        "price": 60
      },
      {
        "itemId": "lee18",
        "name": "老薑豆漿",
        "price": 40
      },
      {
        "itemId": "lee19",
        "name": "老薑黑糖茶",
        "price": 50
      },
      {
        "itemId": "lee20",
        "name": "老薑唐寧紅茶",
        "price": 50
      },
      {
        "itemId": "lee21",
        "name": "老薑黑糖紅豆湯",
        "price": 60
      },
      {
        "itemId": "lee22",
        "name": "老薑紅棗黑木耳露",
        "price": 60
      },
      {
        "itemId": "lee23",
        "name": "老薑黃金地瓜湯",
        "price": 60
      },
      {
        "itemId": "lee24",
        "name": "薏仁漿",
        "price": 40
      },
      {
        "itemId": "lee25",
        "name": "薏仁湯",
        "price": 50
      },
      {
        "itemId": "lee26",
        "name": "紅豆薏仁湯",
        "price": 60
      },
      {
        "itemId": "lee27",
        "name": "枸杞銀耳薏仁湯",
        "price": 60
      },
      {
        "itemId": "lee28",
        "name": "黃金地瓜薏仁湯",
        "price": 60
      },
      {
        "itemId": "lee29",
        "name": "杏仁茶",
        "price": 60
      },
      {
        "itemId": "lee30",
        "name": "花生杏仁茶",
        "price": 60
      },
      {
        "itemId": "lee31",
        "name": "薏仁杏仁茶",
        "price": 60
      },
      {
        "itemId": "lee32",
        "name": "枸杞銀耳杏仁茶",
        "price": 60
      },
      {
        "itemId": "lee33",
        "name": "黃金地瓜杏仁茶",
        "price": 60
      },
      {
        "itemId": "lee41",
        "name": "加點配料: 花生",
        "price": 10
      },
      {
        "itemId": "lee42",
        "name": "加點配料: 紅豆",
        "price": 10
      },
      {
        "itemId": "lee43",
        "name": "加點配料: 薏仁",
        "price": 10
      },
                  {
        "itemId": "lee44",
        "name": "加點配料: 珍珠",
        "price": 10
      },
      {
        "itemId": "lee45",
        "name": "加點配料: 枸杞銀耳",
        "price": 10
      },
      {
        "itemId": "lee46",
        "name": "加點配料: 黃金地瓜",
        "price": 10
      },
      {
        "itemId": "lee47",
        "name": "加點配料: 純米湯圓",
        "price": 10
      },    
      {
        "itemId": "lee48",
        "name": "加點配料: 黑糖粉粿",
        "price": 10
      }           
    ]
  },
  {
    "shopId": "chunshuitang",
    "name": "春水堂",
    "type": "tea",
    "location": "台北市內湖區瑞光路585號",
    "items": [
      {
        "itemId": "a6",
        "name": "小杯(350ml) 表列價格半價",
        "price": 0
      },
      {
        "itemId": "a7",
        "name": "中杯(700ml) 外帶85折",
        "price": 0
      },
      {
        "itemId": "a1",
        "name": "半糖",
        "price": 0
      },
      {
        "itemId": "a2",
        "name": "無糖",
        "price": 0
      },
      {
        "itemId": "a3",
        "name": "少冰",
        "price": 0
      },
      {
        "itemId": "a4",
        "name": "去冰",
        "price": 0
      },
      {
        "itemId": "a5",
        "name": "珍珠",
        "price": 10
      },
      {
        "itemId": "ch1",
        "name": "紅茶拿鐵(冰)",
        "price": 140
      },
      {
        "itemId": "ch1z",
        "name": "紅茶拿鐵(熱)",
        "price": 160
      },
      {
        "itemId": "ch2",
        "name": "烏龍拿鐵(冰)",
        "price": 140
      },
      {
        "itemId": "ch2z",
        "name": "烏龍拿鐵(熱)",
        "price": 160
      },
      {
        "itemId": "ch3",
        "name": "鐵觀音拿鐵(冰)",
        "price": 140
      },
      {
        "itemId": "ch3z",
        "name": "鐵觀音拿鐵(熱)",
        "price": 160
      },
      {
        "itemId": "ch4",
        "name": "抹茶拿鐵(冰)",
        "price": 140
      },
      {
        "itemId": "ch4z",
        "name": "抹茶拿鐵(熱)",
        "price": 160
      },
      {
        "itemId": "ch5",
        "name": "紅茶巧克力拿鐵(冰)",
        "price": 160
      },
      {
        "itemId": "ch5z",
        "name": "紅茶巧克力拿鐵(熱)",
        "price": 170
      },
      {
        "itemId": "ch7",
        "name": "茉香奶茶(冰)",
        "price": 110
      },
      {
        "itemId": "ch7z",
        "name": "茉香奶茶(熱)",
        "price": 160
      },
      {
        "itemId": "ch8",
        "name": "奶茶(冰)",
        "price": 120
      },
      {
        "itemId": "ch8z",
        "name": "奶茶(熱)",
        "price": 160
      },
      {
        "itemId": "ch9",
        "name": "檸檬紅茶(冰)",
        "price": 120
      },
      {
        "itemId": "ch9z",
        "name": "檸檬紅茶(熱)",
        "price": 160
      },
      {
        "itemId": "ch10",
        "name": "紅棗枸杞茶(冰)",
        "price": 120
      },
      {
        "itemId": "ch10z",
        "name": "紅棗枸杞茶(熱)",
        "price": 160
      },
      {
        "itemId": "ch11",
        "name": "鮮桔茶(冰)",
        "price": 120
      },
      {
        "itemId": "ch11z",
        "name": "鮮桔茶(熱)",
        "price": 160
      },
      {
        "itemId": "ch12",
        "name": "紅茶(冰)",
        "price": 100
      },
      {
        "itemId": "ch13",
        "name": "茉香凍飲(冰)",
        "price": 100
      },
      {
        "itemId": "ch14",
        "name": "炭培烏龍茶(冰)",
        "price": 100
      },
      {
        "itemId": "ch15",
        "name": "鐵觀音凍飲(冰)",
        "price": 100
      },
            {
        "itemId": "ch16",
        "name": "翡翠檸檬茶(冰)",
        "price": 100
      },
      {
        "itemId": "ch17",
        "name": "蜂蜜綠茶(冰)",
        "price": 100
      },
      {
        "itemId": "ch19",
        "name": "百香綠茶(冰)",
        "price": 100
      }                                                        
    ]
  },
  {
    "shopId": "mos_burger",
    "name": "[TEST] MOS BURGER",
    "type": "fastfood",
    "location": "",
    "items": [
      {
        "itemId": "mos_cheese_burger",
        "name": "MOS Cheese Burger",
        "price": 70
      },
     {
        "itemId": "mos_hot_dog",
        "name": "MOS Hot Dog",
        "price": 55
      },
     {
        "itemId": "yakiniku_rice_burger",
        "name": "Yakiniku Rice Burger",
        "price": 70
      },
     {
        "itemId": "french_fries",
        "name": "French Fries",
        "price": 35
      }
    ]
  },
  {
    "shopId": "sukiya",
    "name": "[TEST] すき家",
    "type": "japanese food",
    "location": "",
    "items": [
      {
        "itemId": "gyodon",
        "name": "牛丼",
        "price": 69
      },
      {
        "itemId": "mos_hot_dog",
        "name": "豚丼",
        "price": 59
      },
      {
        "itemId": "curry",
        "name": "旨ポークカレー",
        "price": 89
      }
    ]
  },
  {
    "shopId": "kimbab_heaven",
    "name": "[TEST] 김밥천국",
    "type": "korean food",
    "location": "",
    "items": [
      {
        "itemId": "bulgogi_kimbab",
        "name": "불고기김밥",
        "price": 120
      },
      {
        "itemId": "tuna_kimbab",
        "name": "참치김밥",
        "price": 100
      },
      {
        "itemId": "zol_noodle",
        "name": "쫄면",
        "price": 90
      },
      {
        "itemId": "ttukbokki",
        "name": "떡볶이",
        "price": 80
      }
    ]
  }
]  